{
	"offer"	:	"16",
	"pid"	:	"tyr7dc",
	"return"	:	"thanks.php",
	"yandex"	:	"",
	"facebook"	:	"",
    "partners": {
        "global": "1",
        "neogara": "0",
        "partner": "0"
    },
    "language": "EN",
    "sitename": "Bitcoin Union"
}